{
  "project_info": {
    "project_number": "224891684701",
    "firebase_url": "https://tutoapp-feb25.firebaseio.com",
    "project_id": "tutoapp-feb25",
    "storage_bucket": "tutoapp-feb25.appspot.com"
  },
  "client": [
    {
      "client_info": {
        "mobilesdk_app_id": "1:224891684701:android:355fd3f1158bc1a4840ab4",
        "android_client_info": {
          "package_name": "com.example.tutoapp"
        }
      },
      "oauth_client": [
        {
          "client_id": "224891684701-deeddgk4g5sk9s6p2vemc62b9vmogsuf.apps.googleusercontent.com",
          "client_type": 3
        }
      ],
      "api_key": [
        {
          "current_key": "AIzaSyAKdKOn1fjfNbAn6MIQ7Yodt30CGNK3Qrw"
        }
      ],
      "services": {
        "appinvite_service": {
          "other_platform_oauth_client": [
            {
              "client_id": "224891684701-deeddgk4g5sk9s6p2vemc62b9vmogsuf.apps.googleusercontent.com",
              "client_type": 3
            }
          ]
        }
      }
    }
  ],
  "configuration_version": "1"
}